{"results":[{"title":"Elasmobranchii","id":1857,"content":"cartilaginous fishes; rays; sharks; skates; torpedoes; sharks, skates and rays","link":"http://eol.org/pages/1857"},{"title":"Euselachii","id":2774524,"content":"sharks","link":"http://eol.org/pages/2774524"},{"title":"Selachimorpha","id":4659120,"content":"sharks","link":"http://eol.org/pages/4659120"},{"title":"Chondrichthyes","id":2774522,"content":"rays; sharks","link":"http://eol.org/pages/2774522"},{"title":"Scyliorhinidae","id":1896,"content":"cat sharks","link":"http://eol.org/pages/1896"},{"title":"Carcharhinus limbatus (M\u00fcller and Henle, 1839)","id":213833,"content":"Ehoua; Metan; Tribon cassado; Tibur\u00f3n; Thila miyaru; Karcharynos kontofteros; Karcharynos melanoakros; \u039a\u03b1\u03c1\u03c7\u03b1\u03c1\u03af\u03bd\u03bf\u03c2 \u03ba\u03bf\u03bd\u03c4\u03cc\u03c6\u03c4\u03b5\u03c1\u03bf\u03c2; \u039a\u03b1\u03c1\u03c7\u03b1\u03c1\u03af\u03bd\u03bf\u03c2 \u03bc\u03b5\u03bb\u03b1\u03bd\u03cc\u03b1\u03ba\u03c1\u03bf\u03c2; Tubar\u00e3o-azul; gray sharks; \u5927\u6c99; \u6591\u9ccd\u771f\u9ca8; \u77ed\u9ccd\u771f\u9ca8; \u8537\u8587\u767d\u773c\u9c9b; \u4fa7\u6761\u771f\u9ca8; \u949d\u543b\u771f\u9ca8; \u5074\u689d\u771f\u9bca; \u920d\u543b\u771f\u9bca; \u6591\u9c2d\u771f\u9bca; \u77ed\u9c2d\u771f\u9bca; \u8594\u8587\u767d\u773c\u9bab; \u9ed1\u6591\u6c99; \u9ed1\u68a2\u771f\u9ca8; \u9ed1\u8fb9\u9ccd\u767d\u773c\u9c9b; \u9ed1\u68a2\u771f\u9bca; \u9ed1\u908a\u9c2d\u767d\u773c\u9bab; \u8482\u6c0f\u771f\u9ca8; \u8482\u6c0f\u771f\u9bca; Cucut lanjaman; Merak bulu; Hiu lanyam; Hiu lonjor; Hiu plen; Hiu kejen","link":"http://eol.org/pages/213833"},{"title":"Pristiophorus","id":24328,"content":"saw sharks","link":"http://eol.org/pages/24328"},{"title":"Mustelus","id":24297,"content":"smooth hound sharks","link":"http://eol.org/pages/24297"},{"title":"Centrophorus","id":24395,"content":"gulper sharks","link":"http://eol.org/pages/24395"},{"title":"Sphyrna","id":25471,"content":"bonnethead sharks; hammerhead sharks","link":"http://eol.org/pages/25471"},{"title":"Squalidae","id":8895,"content":"dogfish sharks","link":"http://eol.org/pages/8895"},{"title":"Somniosus","id":25171,"content":"sleeper sharks","link":"http://eol.org/pages/25171"},{"title":"Scyliorhinus","id":25490,"content":"spotted cat sharks","link":"http://eol.org/pages/25490"},{"title":"Carcharhinus tilstoni (Whitley, 1950)","id":223722,"content":"Tibur\u00f3n; gray sharks; \u8482\u6c0f\u771f\u9ca8; \u8482\u6c0f\u771f\u9bca","link":"http://eol.org/pages/223722"},{"title":"Galeus","id":25480,"content":"sawtail cat sharks","link":"http://eol.org/pages/25480"},{"title":"Echinorhinus","id":27177,"content":"bramble sharks","link":"http://eol.org/pages/27177"},{"title":"Cephaloscyllium","id":15054,"content":"swell sharks","link":"http://eol.org/pages/15054"},{"title":"Hemigaleidae","id":1900,"content":"weasel sharks","link":"http://eol.org/pages/1900"},{"title":"Carcharhinus cautus (Whitley, 1945)","id":215450,"content":"Shark; Guliman; Black finned shark; Black tip reef shark; Black tips nilow; Black-tip reef shark; Blacktip shark; Reef blacktip shark; Requien shark; Blackfin reef shark; blacktip reef shark; Blacktip reefshark; Black tip shark; Black fin reef shark; Sharks Bay whaler shark","link":"http://eol.org/pages/215450"},{"title":"Etmopterus fusus Last, Burgess and S\u00e9ret, 2002","id":216786,"content":"lantern sharks","link":"http://eol.org/pages/216786"},{"title":"Isistius","id":25487,"content":"cookie-cuter sharks","link":"http://eol.org/pages/25487"},{"title":"Iago","id":24343,"content":"bigeye hound sharks","link":"http://eol.org/pages/24343"},{"title":"Etmopterus","id":24013,"content":"lantern sharks","link":"http://eol.org/pages/24013"},{"title":"Hexanchidae","id":1883,"content":"sevengill sharks; sixgill sharks","link":"http://eol.org/pages/1883"},{"title":"Parmaturus","id":25501,"content":"filetail cat sharks","link":"http://eol.org/pages/25501"},{"title":"Sphyrnidae","id":1895,"content":"Hammerhead, bonnethead, scoophead shark; bonnethead sharks; hammerhead sharks; scoophead sharks; Leaf Skeletonizer Moths","link":"http://eol.org/pages/1895"},{"title":"Haploblepharus","id":24743,"content":"shy sharks","link":"http://eol.org/pages/24743"},{"title":"Halaelurus","id":23975,"content":"tiger cat sharks","link":"http://eol.org/pages/23975"},{"title":"Apristurus","id":24288,"content":"demon cat sharks; ghost cat sharks","link":"http://eol.org/pages/24288"},{"title":"Carcharhinus","id":23812,"content":"gray sharks","link":"http://eol.org/pages/23812"}],"totalResults":110,"self":"http://eol.org/api/search/sharks.json?page=1","itemsPerPage":30,"last":"http://eol.org/api/search/sharks.json?page=4","startIndex":1,"first":"http://eol.org/api/search/sharks.json?page=1","next":"http://eol.org/api/search/sharks.json?page=2"}